------------------------------------------------------------------------
r1055158 | tszanto | 2009-11-27 13:18:51 +0000 (Fri, 27 Nov 2009) | 1 line

Tamas Szanto
------------------------------------------------------------------------
r1055160 | tszanto | 2009-11-27 13:24:49 +0000 (Fri, 27 Nov 2009) | 1 line

Tamas Szanto
------------------------------------------------------------------------
r1055162 | tszanto | 2009-11-27 13:28:24 +0000 (Fri, 27 Nov 2009) | 1 line

Tamas Szanto
------------------------------------------------------------------------
r1055166 | tszanto | 2009-11-27 13:30:43 +0000 (Fri, 27 Nov 2009) | 1 line

Tamas Szanto
------------------------------------------------------------------------
r1055211 | tszanto | 2009-11-27 15:35:42 +0000 (Fri, 27 Nov 2009) | 1 line

Tamas Szanto
------------------------------------------------------------------------
r1055293 | jferrer | 2009-11-27 19:44:50 +0000 (Fri, 27 Nov 2009) | 2 lines

Updates by Josep Ma. Ferrer

------------------------------------------------------------------------
r1055317 | mrybczyn | 2009-11-27 20:43:07 +0000 (Fri, 27 Nov 2009) | 2 lines

Translation update (Maciej Wiklo)

------------------------------------------------------------------------
r1055343 | mrybczyn | 2009-11-27 21:09:57 +0000 (Fri, 27 Nov 2009) | 2 lines

Translation update (Krzysztof Wozniak)

------------------------------------------------------------------------
r1055415 | s_dibbern | 2009-11-28 00:06:27 +0000 (Sat, 28 Nov 2009) | 1 line

Scattered changes from stable revision 1055413.
------------------------------------------------------------------------
r1055420 | scripty | 2009-11-28 00:31:37 +0000 (Sat, 28 Nov 2009) | 1 line

SVN_SILENT made messages (.pot file)
------------------------------------------------------------------------
r1055442 | zpintar | 2009-11-28 02:25:17 +0000 (Sat, 28 Nov 2009) | 1 line

Updated Croatian translations for kde4-stable.
------------------------------------------------------------------------
r1055446 | scripty | 2009-11-28 04:01:29 +0000 (Sat, 28 Nov 2009) | 1 line

SVN_SILENT made messages (.po file)
------------------------------------------------------------------------
r1055450 | scripty | 2009-11-28 04:45:22 +0000 (Sat, 28 Nov 2009) | 1 line

check_po_files
------------------------------------------------------------------------
r1055657 | mgama | 2009-11-28 13:09:47 +0000 (Sat, 28 Nov 2009) | 1 line

Updating pt_BR translations
------------------------------------------------------------------------
r1055691 | yurchor | 2009-11-28 14:36:45 +0000 (Sat, 28 Nov 2009) | 1 line

Ukrainian translation update for stable
------------------------------------------------------------------------
r1055706 | huftis | 2009-11-28 15:26:02 +0000 (Sat, 28 Nov 2009) | 1 line

Updated Norwegian Nynorsk translations for kde4-stable.
------------------------------------------------------------------------
r1055721 | huftis | 2009-11-28 15:52:56 +0000 (Sat, 28 Nov 2009) | 1 line

Updated Norwegian Bokmål translations for kde4-stable.
------------------------------------------------------------------------
r1055725 | bando | 2009-11-28 16:02:57 +0000 (Sat, 28 Nov 2009) | 1 line

SVN_SILENT: Summit scatter.
------------------------------------------------------------------------
r1055904 | scripty | 2009-11-29 00:32:31 +0000 (Sun, 29 Nov 2009) | 1 line

SVN_SILENT made messages (.pot file)
------------------------------------------------------------------------
r1055905 | scripty | 2009-11-29 00:33:52 +0000 (Sun, 29 Nov 2009) | 1 line

SVN_SILENT made messages (desktop*.pot file committed)
------------------------------------------------------------------------
r1055910 | jferrer | 2009-11-29 01:24:43 +0000 (Sun, 29 Nov 2009) | 3 lines

Changed translation for "Seeding" menu option: "Sembrat". Reported by aacid.
CCMAIL: aacid@kde.org

------------------------------------------------------------------------
r1055914 | jferrer | 2009-11-29 01:51:02 +0000 (Sun, 29 Nov 2009) | 2 lines

More typos, by Josep Ma. Ferrer

------------------------------------------------------------------------
r1055922 | zpintar | 2009-11-29 02:26:43 +0000 (Sun, 29 Nov 2009) | 1 line

Updated Croatian translations for kde4-stable.
------------------------------------------------------------------------
r1055927 | scripty | 2009-11-29 04:05:40 +0000 (Sun, 29 Nov 2009) | 1 line

SVN_SILENT made messages (.po file)
------------------------------------------------------------------------
r1056177 | ilic | 2009-11-29 15:22:03 +0000 (Sun, 29 Nov 2009) | 1 line

SVN_SILENT: Merge.
------------------------------------------------------------------------
r1056349 | jferrer | 2009-11-29 22:17:55 +0000 (Sun, 29 Nov 2009) | 2 lines

Update by Josep Ma. Ferrer

------------------------------------------------------------------------
r1056398 | scripty | 2009-11-30 00:34:25 +0000 (Mon, 30 Nov 2009) | 1 line

SVN_SILENT made messages (.pot file)
------------------------------------------------------------------------
r1056409 | s_dibbern | 2009-11-30 01:34:16 +0000 (Mon, 30 Nov 2009) | 1 line

Scattered changes from stable revision 1056407.
------------------------------------------------------------------------
r1056413 | zpintar | 2009-11-30 02:25:53 +0000 (Mon, 30 Nov 2009) | 1 line

Updated Croatian translations for kde4-stable.
------------------------------------------------------------------------
r1056416 | scripty | 2009-11-30 04:15:49 +0000 (Mon, 30 Nov 2009) | 1 line

SVN_SILENT made messages (.po file)
------------------------------------------------------------------------
r1056765 | jferrer | 2009-11-30 19:52:12 +0000 (Mon, 30 Nov 2009) | 2 lines

Typo for Catalan milliseconds (milisegons -> mil·lisegons). Reported by Manuel Tortosa.

------------------------------------------------------------------------
r1056827 | huftis | 2009-11-30 23:27:15 +0000 (Mon, 30 Nov 2009) | 1 line

Updated Norwegian Nynorsk translations for kde4-stable.
------------------------------------------------------------------------
r1056835 | huftis | 2009-11-30 23:48:44 +0000 (Mon, 30 Nov 2009) | 1 line

Updated Norwegian Bokmål translations for kde4-stable.
------------------------------------------------------------------------
r1056846 | scripty | 2009-12-01 00:29:44 +0000 (Tue, 01 Dec 2009) | 1 line

SVN_SILENT made messages (.pot file)
------------------------------------------------------------------------
r1056876 | s_dibbern | 2009-12-01 01:33:23 +0000 (Tue, 01 Dec 2009) | 1 line

Scattered changes from stable revision 1056874.
------------------------------------------------------------------------
r1056881 | zpintar | 2009-12-01 02:26:13 +0000 (Tue, 01 Dec 2009) | 1 line

Updated Croatian translations for kde4-stable.
------------------------------------------------------------------------
r1056885 | scripty | 2009-12-01 03:51:05 +0000 (Tue, 01 Dec 2009) | 1 line

SVN_SILENT made messages (.po file)
------------------------------------------------------------------------
r1057095 | s_dibbern | 2009-12-01 13:28:32 +0000 (Tue, 01 Dec 2009) | 1 line

Scattered changes from stable revision 1057091.
------------------------------------------------------------------------
r1057187 | jferrer | 2009-12-01 17:08:53 +0000 (Tue, 01 Dec 2009) | 3 lines

Typo: "count" must be traslated as "comptador" (not "comte"). Reported by Manuel Tortosa.
CCMAIL: manutortosa@gmail.com

------------------------------------------------------------------------
r1057217 | ecuadra | 2009-12-01 18:38:18 +0000 (Tue, 01 Dec 2009) | 2 lines

SVN_SILENT Translation update & screenshots by Leticia Martin
CC_MAIL: leticia.martin@gmail.com, jaime@robles.es
------------------------------------------------------------------------
r1057347 | scripty | 2009-12-02 04:03:15 +0000 (Wed, 02 Dec 2009) | 1 line

SVN_SILENT made messages (.po file)
------------------------------------------------------------------------
r1057436 | cas | 2009-12-02 12:20:05 +0000 (Wed, 02 Dec 2009) | 1 line

SVN_SILENT Fix typo
------------------------------------------------------------------------
r1057543 | yurchor | 2009-12-02 19:37:36 +0000 (Wed, 02 Dec 2009) | 1 line

Ukrainian translation update for stable
------------------------------------------------------------------------
r1057592 | ilic | 2009-12-02 21:42:47 +0000 (Wed, 02 Dec 2009) | 1 line

SVN_SILENT: Merge.
------------------------------------------------------------------------
r1057597 | montanaro | 2009-12-02 21:53:25 +0000 (Wed, 02 Dec 2009) | 2 lines

Update

------------------------------------------------------------------------
r1057625 | ilic | 2009-12-02 23:24:11 +0000 (Wed, 02 Dec 2009) | 1 line

SVN_SILENT: Summit scatter.
------------------------------------------------------------------------
r1057635 | scripty | 2009-12-03 00:34:12 +0000 (Thu, 03 Dec 2009) | 1 line

SVN_SILENT made messages (.pot file)
------------------------------------------------------------------------
r1057653 | zpintar | 2009-12-03 02:26:40 +0000 (Thu, 03 Dec 2009) | 1 line

Updated Croatian translations for kde4-stable.
------------------------------------------------------------------------
r1057673 | scripty | 2009-12-03 04:04:10 +0000 (Thu, 03 Dec 2009) | 1 line

SVN_SILENT made messages (.po file)
------------------------------------------------------------------------
r1057953 | ecuadra | 2009-12-03 17:19:56 +0000 (Thu, 03 Dec 2009) | 2 lines

SVN_SILENT Translation update & screenshots by Leticia Martin
CC_MAIL: leticia.martin@gmail.com, jaime@robles.es
------------------------------------------------------------------------
r1057963 | ecuadra | 2009-12-03 17:44:15 +0000 (Thu, 03 Dec 2009) | 1 line

SVN_SILENT Screenshot update
------------------------------------------------------------------------
r1058142 | scripty | 2009-12-04 00:30:09 +0000 (Fri, 04 Dec 2009) | 1 line

SVN_SILENT made messages (.pot file)
------------------------------------------------------------------------
r1058143 | scripty | 2009-12-04 00:31:30 +0000 (Fri, 04 Dec 2009) | 1 line

SVN_SILENT made messages (desktop*.pot file committed)
------------------------------------------------------------------------
r1058172 | zpintar | 2009-12-04 02:24:07 +0000 (Fri, 04 Dec 2009) | 1 line

Updated Croatian translations for kde4-stable.
------------------------------------------------------------------------
r1058177 | scripty | 2009-12-04 03:52:44 +0000 (Fri, 04 Dec 2009) | 1 line

SVN_SILENT made messages (.po file)
------------------------------------------------------------------------
r1058187 | yurchor | 2009-12-04 06:56:32 +0000 (Fri, 04 Dec 2009) | 1 line

Ukrainian translation update for stable
------------------------------------------------------------------------
r1058471 | pelcak | 2009-12-04 14:26:44 +0000 (Fri, 04 Dec 2009) | 1 line

Update by Vit Pelcak
------------------------------------------------------------------------
r1058491 | pelcak | 2009-12-04 14:58:31 +0000 (Fri, 04 Dec 2009) | 1 line

Update by Vit Pelcak
------------------------------------------------------------------------
r1058492 | pelcak | 2009-12-04 14:59:43 +0000 (Fri, 04 Dec 2009) | 1 line

Update by Vit Pelcak
------------------------------------------------------------------------
r1058625 | huftis | 2009-12-04 20:12:27 +0000 (Fri, 04 Dec 2009) | 1 line

Updated Norwegian Nynorsk translations for kde4-stable.
------------------------------------------------------------------------
r1058633 | huftis | 2009-12-04 20:31:12 +0000 (Fri, 04 Dec 2009) | 1 line

Updated Norwegian Bokmål translations for kde4-stable.
------------------------------------------------------------------------
r1058651 | mgama | 2009-12-04 21:20:55 +0000 (Fri, 04 Dec 2009) | 1 line

Updating pt_BR translations
------------------------------------------------------------------------
r1058745 | scripty | 2009-12-05 04:07:18 +0000 (Sat, 05 Dec 2009) | 1 line

SVN_SILENT made messages (.po file)
------------------------------------------------------------------------
r1058910 | ilic | 2009-12-05 10:38:36 +0000 (Sat, 05 Dec 2009) | 1 line

SVN_SILENT: Merge.
------------------------------------------------------------------------
r1059170 | jferrer | 2009-12-05 23:06:05 +0000 (Sat, 05 Dec 2009) | 2 lines

Updates by Josep Ma. Ferrer

------------------------------------------------------------------------
r1059180 | scripty | 2009-12-06 00:32:49 +0000 (Sun, 06 Dec 2009) | 1 line

SVN_SILENT made messages (desktop*.pot file committed)
------------------------------------------------------------------------
r1059220 | scripty | 2009-12-06 04:07:14 +0000 (Sun, 06 Dec 2009) | 1 line

SVN_SILENT made messages (.po file)
------------------------------------------------------------------------
r1059388 | sveinki | 2009-12-06 13:53:54 +0000 (Sun, 06 Dec 2009) | 1 line

nokkrir strengir
------------------------------------------------------------------------
r1059428 | mrybczyn | 2009-12-06 16:29:57 +0000 (Sun, 06 Dec 2009) | 2 lines

Translation update (Krzysztof Wozniak)

------------------------------------------------------------------------
r1059443 | mrybczyn | 2009-12-06 17:01:04 +0000 (Sun, 06 Dec 2009) | 2 lines

Initial translation (Krzysztof Wozniak)

------------------------------------------------------------------------
r1059556 | jferrer | 2009-12-06 22:38:23 +0000 (Sun, 06 Dec 2009) | 2 lines

Updates by Josep Ma. Ferrer (typos)

------------------------------------------------------------------------
r1059625 | scripty | 2009-12-07 04:00:41 +0000 (Mon, 07 Dec 2009) | 1 line

SVN_SILENT made messages (.po file)
------------------------------------------------------------------------
r1059631 | scripty | 2009-12-07 04:38:50 +0000 (Mon, 07 Dec 2009) | 1 line

check_po_files
------------------------------------------------------------------------
r1059934 | yurchor | 2009-12-07 18:01:25 +0000 (Mon, 07 Dec 2009) | 1 line

Ukrainian translation update for stable
------------------------------------------------------------------------
r1059982 | chahibi | 2009-12-07 20:38:48 +0000 (Mon, 07 Dec 2009) | 2 lines

Initial merger

------------------------------------------------------------------------
r1060001 | mrybczyn | 2009-12-07 21:17:50 +0000 (Mon, 07 Dec 2009) | 2 lines

Translation update (Krzysztof Wozniak)

------------------------------------------------------------------------
r1060006 | mrybczyn | 2009-12-07 21:24:35 +0000 (Mon, 07 Dec 2009) | 2 lines

Initial translation (Krzysztof Wozniak)

------------------------------------------------------------------------
r1060026 | jferrer | 2009-12-07 22:24:45 +0000 (Mon, 07 Dec 2009) | 2 lines

Updates by Josep Ma. Ferrer

------------------------------------------------------------------------
r1060069 | scripty | 2009-12-08 00:32:51 +0000 (Tue, 08 Dec 2009) | 1 line

SVN_SILENT made messages (.pot file)
------------------------------------------------------------------------
r1060097 | zpintar | 2009-12-08 02:25:31 +0000 (Tue, 08 Dec 2009) | 1 line

Updated Croatian translations for kde4-stable.
------------------------------------------------------------------------
r1060104 | scripty | 2009-12-08 04:00:09 +0000 (Tue, 08 Dec 2009) | 1 line

SVN_SILENT made messages (.po file)
------------------------------------------------------------------------
r1060106 | scripty | 2009-12-08 04:39:29 +0000 (Tue, 08 Dec 2009) | 1 line

check_po_files
------------------------------------------------------------------------
r1060258 | chahibi | 2009-12-08 11:04:26 +0000 (Tue, 08 Dec 2009) | 1 line

Maintenance
------------------------------------------------------------------------
r1060377 | kenkovaa | 2009-12-08 17:50:30 +0000 (Tue, 08 Dec 2009) | 2 lines

Some 4.3 translations and some trunk->4.3 translations

------------------------------------------------------------------------
r1060386 | yurchor | 2009-12-08 19:02:44 +0000 (Tue, 08 Dec 2009) | 1 line

Ukrainian translation update for stable
------------------------------------------------------------------------
r1060431 | jferrer | 2009-12-08 22:10:57 +0000 (Tue, 08 Dec 2009) | 2 lines

Updates by Josep Ma. Ferrer

------------------------------------------------------------------------
r1060467 | zpintar | 2009-12-09 02:28:53 +0000 (Wed, 09 Dec 2009) | 1 line

Updated Croatian translations for kde4-stable.
------------------------------------------------------------------------
r1060482 | scripty | 2009-12-09 04:51:28 +0000 (Wed, 09 Dec 2009) | 1 line

SVN_SILENT made messages (.po file)
------------------------------------------------------------------------
r1060484 | repinc | 2009-12-09 05:32:06 +0000 (Wed, 09 Dec 2009) | 2 lines

Updated Slovenian translations

------------------------------------------------------------------------
r1060487 | scripty | 2009-12-09 06:25:11 +0000 (Wed, 09 Dec 2009) | 1 line

check_po_files
------------------------------------------------------------------------
r1060515 | repinc | 2009-12-09 10:10:04 +0000 (Wed, 09 Dec 2009) | 2 lines

Updated Slovenian translations

------------------------------------------------------------------------
r1060700 | yurchor | 2009-12-09 17:47:43 +0000 (Wed, 09 Dec 2009) | 1 line

Ukrainian translation update for stable
------------------------------------------------------------------------
r1060790 | jferrer | 2009-12-09 21:57:32 +0000 (Wed, 09 Dec 2009) | 2 lines

Updates by Josep Ma. Ferrer

------------------------------------------------------------------------
r1060808 | scripty | 2009-12-10 00:31:27 +0000 (Thu, 10 Dec 2009) | 1 line

SVN_SILENT made messages (.pot file)
------------------------------------------------------------------------
r1060836 | zpintar | 2009-12-10 02:25:48 +0000 (Thu, 10 Dec 2009) | 1 line

Updated Croatian translations for kde4-stable.
------------------------------------------------------------------------
r1060846 | scripty | 2009-12-10 04:06:34 +0000 (Thu, 10 Dec 2009) | 1 line

SVN_SILENT made messages (.po file)
------------------------------------------------------------------------
r1061086 | zepires | 2009-12-10 15:35:28 +0000 (Thu, 10 Dec 2009) | 1 line

Updates on BRANCH for now
------------------------------------------------------------------------
r1061151 | lueck | 2009-12-10 20:27:58 +0000 (Thu, 10 Dec 2009) | 1 line

bye bye krita docs
------------------------------------------------------------------------
r1061154 | lueck | 2009-12-10 20:29:59 +0000 (Thu, 10 Dec 2009) | 1 line

remove obsolete german krita documentation
------------------------------------------------------------------------
r1061203 | scripty | 2009-12-11 00:32:01 +0000 (Fri, 11 Dec 2009) | 1 line

SVN_SILENT made messages (.pot file)
------------------------------------------------------------------------
r1061222 | zpintar | 2009-12-11 02:25:18 +0000 (Fri, 11 Dec 2009) | 1 line

Updated Croatian translations for kde4-stable.
------------------------------------------------------------------------
r1061231 | scripty | 2009-12-11 03:59:06 +0000 (Fri, 11 Dec 2009) | 1 line

SVN_SILENT made messages (.po file)
------------------------------------------------------------------------
r1061284 | pelcak | 2009-12-11 10:17:51 +0000 (Fri, 11 Dec 2009) | 1 line

Gragon -> Dragon fix
------------------------------------------------------------------------
r1061435 | yurchor | 2009-12-11 17:58:18 +0000 (Fri, 11 Dec 2009) | 1 line

Ukrainian translation update for stable
------------------------------------------------------------------------
r1061511 | ecuadra | 2009-12-11 22:32:00 +0000 (Fri, 11 Dec 2009) | 2 lines

SVN_SILENT Remove some obsolete docbooks.
CC_MAIL: kde-l10n-es@kde.org
------------------------------------------------------------------------
r1061522 | scripty | 2009-12-12 00:31:23 +0000 (Sat, 12 Dec 2009) | 1 line

SVN_SILENT made messages (.pot file)
------------------------------------------------------------------------
r1061538 | zpintar | 2009-12-12 02:24:27 +0000 (Sat, 12 Dec 2009) | 1 line

Updated Croatian translations for kde4-stable.
------------------------------------------------------------------------
r1061541 | scripty | 2009-12-12 03:52:36 +0000 (Sat, 12 Dec 2009) | 1 line

SVN_SILENT made messages (.po file)
------------------------------------------------------------------------
r1061576 | asserhal | 2009-12-12 10:47:55 +0000 (Sat, 12 Dec 2009) | 1 line

SVN_SILENT updated translations
------------------------------------------------------------------------
r1061585 | sveinki | 2009-12-12 12:14:44 +0000 (Sat, 12 Dec 2009) | 1 line

stafsetningarvilla
------------------------------------------------------------------------
r1061586 | sveinki | 2009-12-12 12:15:23 +0000 (Sat, 12 Dec 2009) | 1 line

stafsetningarvilla
------------------------------------------------------------------------
r1061587 | sveinki | 2009-12-12 12:20:35 +0000 (Sat, 12 Dec 2009) | 1 line

nokkrir strengir
------------------------------------------------------------------------
r1061594 | pelcak | 2009-12-12 12:50:23 +0000 (Sat, 12 Dec 2009) | 1 line

Fix of bug 218299
------------------------------------------------------------------------
r1061681 | mrybczyn | 2009-12-12 17:33:18 +0000 (Sat, 12 Dec 2009) | 2 lines

Initial translaton (Krzysztof Wozniak)

------------------------------------------------------------------------
r1061723 | jferrer | 2009-12-12 20:20:07 +0000 (Sat, 12 Dec 2009) | 2 lines

Removed obsolete docbooks. Generated new docs.

------------------------------------------------------------------------
r1061759 | jferrer | 2009-12-12 23:44:15 +0000 (Sat, 12 Dec 2009) | 2 lines

Updates by Josep Ma. Ferrer

------------------------------------------------------------------------
r1061772 | ilic | 2009-12-13 01:35:21 +0000 (Sun, 13 Dec 2009) | 1 line

SVN_SILENT: Merge.
------------------------------------------------------------------------
r1061795 | scripty | 2009-12-13 03:54:23 +0000 (Sun, 13 Dec 2009) | 1 line

SVN_SILENT made messages (.po file)
------------------------------------------------------------------------
r1061802 | scripty | 2009-12-13 04:35:01 +0000 (Sun, 13 Dec 2009) | 1 line

check_po_files
------------------------------------------------------------------------
r1061985 | huftis | 2009-12-13 13:32:15 +0000 (Sun, 13 Dec 2009) | 1 line

Updated Norwegian Nynorsk translations for kde4-stable.
------------------------------------------------------------------------
r1061993 | huftis | 2009-12-13 13:54:04 +0000 (Sun, 13 Dec 2009) | 1 line

Updated Norwegian Bokmål translations for kde4-stable.
------------------------------------------------------------------------
r1062028 | schlander | 2009-12-13 15:36:04 +0000 (Sun, 13 Dec 2009) | 2 lines

deleting obsolete danish koffice docbooks from branch

------------------------------------------------------------------------
r1062124 | repinc | 2009-12-13 20:50:54 +0000 (Sun, 13 Dec 2009) | 2 lines

Updated Slovenian translations

------------------------------------------------------------------------
r1062161 | ilic | 2009-12-14 00:06:16 +0000 (Mon, 14 Dec 2009) | 1 line

SVN_SILENT: Merge.
------------------------------------------------------------------------
r1062169 | scripty | 2009-12-14 00:31:54 +0000 (Mon, 14 Dec 2009) | 1 line

SVN_SILENT made messages (.pot file)
------------------------------------------------------------------------
r1062174 | zpintar | 2009-12-14 02:25:33 +0000 (Mon, 14 Dec 2009) | 1 line

Updated Croatian translations for kde4-stable.
------------------------------------------------------------------------
r1062185 | scripty | 2009-12-14 04:07:06 +0000 (Mon, 14 Dec 2009) | 1 line

SVN_SILENT made messages (.po file)
------------------------------------------------------------------------
r1062204 | yurchor | 2009-12-14 06:59:32 +0000 (Mon, 14 Dec 2009) | 1 line

SVN_SILENT Ukrainian translation update for stable
------------------------------------------------------------------------
r1062520 | scripty | 2009-12-15 00:33:00 +0000 (Tue, 15 Dec 2009) | 1 line

SVN_SILENT made messages (desktop*.pot file committed)
------------------------------------------------------------------------
r1062537 | zpintar | 2009-12-15 02:34:57 +0000 (Tue, 15 Dec 2009) | 1 line

Updated Croatian translations for kde4-stable.
------------------------------------------------------------------------
r1062540 | scripty | 2009-12-15 03:54:02 +0000 (Tue, 15 Dec 2009) | 1 line

SVN_SILENT made messages (.po file)
------------------------------------------------------------------------
r1062546 | scripty | 2009-12-15 04:07:11 +0000 (Tue, 15 Dec 2009) | 1 line

SVN_SILENT made messages (.desktop file)
------------------------------------------------------------------------
r1062556 | yurchor | 2009-12-15 06:20:24 +0000 (Tue, 15 Dec 2009) | 1 line

SVN_SILENT Ukrainian translation update for stable
------------------------------------------------------------------------
r1062717 | yurchor | 2009-12-15 19:18:56 +0000 (Tue, 15 Dec 2009) | 1 line

SVN_SILENT Ukrainian translation update for stable
------------------------------------------------------------------------
r1062751 | yurchor | 2009-12-15 21:04:22 +0000 (Tue, 15 Dec 2009) | 1 line

SVN_SILENT Ukrainian translation update for stable
------------------------------------------------------------------------
r1062797 | scripty | 2009-12-16 03:59:22 +0000 (Wed, 16 Dec 2009) | 1 line

SVN_SILENT made messages (.po file)
------------------------------------------------------------------------
r1063030 | asserhal | 2009-12-16 19:19:53 +0000 (Wed, 16 Dec 2009) | 1 line

SVN_SILENT updated translations
------------------------------------------------------------------------
r1063067 | ltoscano | 2009-12-16 21:56:03 +0000 (Wed, 16 Dec 2009) | 4 lines

Translation updates by Simone Solinas.

CCMAIL: ksolsim@gmail.com

------------------------------------------------------------------------
r1063117 | scripty | 2009-12-17 00:31:10 +0000 (Thu, 17 Dec 2009) | 1 line

SVN_SILENT made messages (.pot file)
------------------------------------------------------------------------
r1063134 | scripty | 2009-12-17 04:00:08 +0000 (Thu, 17 Dec 2009) | 1 line

SVN_SILENT made messages (.po file)
------------------------------------------------------------------------
r1063387 | scripty | 2009-12-18 00:33:55 +0000 (Fri, 18 Dec 2009) | 1 line

SVN_SILENT made messages (.pot file)
------------------------------------------------------------------------
r1063407 | scripty | 2009-12-18 03:50:58 +0000 (Fri, 18 Dec 2009) | 1 line

SVN_SILENT made messages (.po file)
------------------------------------------------------------------------
r1063608 | jferrer | 2009-12-18 22:07:52 +0000 (Fri, 18 Dec 2009) | 2 lines

Updates by Josep Ma. Ferrer

------------------------------------------------------------------------
r1063652 | scripty | 2009-12-19 00:30:46 +0000 (Sat, 19 Dec 2009) | 1 line

SVN_SILENT made messages (desktop*.pot file committed)
------------------------------------------------------------------------
r1063674 | zpintar | 2009-12-19 02:24:38 +0000 (Sat, 19 Dec 2009) | 1 line

Updated Croatian translations for kde4-stable.
------------------------------------------------------------------------
r1063679 | scripty | 2009-12-19 03:41:29 +0000 (Sat, 19 Dec 2009) | 1 line

SVN_SILENT made messages (.po file)
------------------------------------------------------------------------
r1063832 | jferrer | 2009-12-19 11:08:13 +0000 (Sat, 19 Dec 2009) | 2 lines

Updates by Josep Ma. Ferrer (typos)

------------------------------------------------------------------------
r1063835 | lueck | 2009-12-19 11:24:09 +0000 (Sat, 19 Dec 2009) | 1 line

fix wrong translation reported in BR 214492
------------------------------------------------------------------------
r1063884 | huftis | 2009-12-19 14:17:17 +0000 (Sat, 19 Dec 2009) | 1 line

Updated Norwegian Nynorsk translations for kde4-stable.
------------------------------------------------------------------------
r1063894 | huftis | 2009-12-19 14:41:49 +0000 (Sat, 19 Dec 2009) | 1 line

Updated Norwegian Bokmål translations for kde4-stable.
------------------------------------------------------------------------
r1063993 | yurchor | 2009-12-19 19:34:54 +0000 (Sat, 19 Dec 2009) | 1 line

SVN_SILENT Ukrainian translation update for stable
------------------------------------------------------------------------
r1064043 | jferrer | 2009-12-19 23:15:08 +0000 (Sat, 19 Dec 2009) | 2 lines

Updates by Josep Ma. Ferrer (typos)

------------------------------------------------------------------------
r1064048 | scripty | 2009-12-20 00:33:49 +0000 (Sun, 20 Dec 2009) | 1 line

SVN_SILENT made messages (.pot file)
------------------------------------------------------------------------
r1064049 | scripty | 2009-12-20 00:35:29 +0000 (Sun, 20 Dec 2009) | 1 line

SVN_SILENT made messages (desktop*.pot file committed)
------------------------------------------------------------------------
r1064061 | zpintar | 2009-12-20 02:27:12 +0000 (Sun, 20 Dec 2009) | 1 line

Updated Croatian translations for kde4-stable.
------------------------------------------------------------------------
r1064067 | scripty | 2009-12-20 04:01:05 +0000 (Sun, 20 Dec 2009) | 1 line

SVN_SILENT made messages (.po file)
------------------------------------------------------------------------
r1064073 | scripty | 2009-12-20 04:15:37 +0000 (Sun, 20 Dec 2009) | 1 line

SVN_SILENT made messages (.desktop file)
------------------------------------------------------------------------
r1064076 | lranghetti | 2009-12-20 04:26:01 +0000 (Sun, 20 Dec 2009) | 1 line

remove obsole docs as pointed by Burkhard
------------------------------------------------------------------------
r1064178 | ltoscano | 2009-12-20 10:40:38 +0000 (Sun, 20 Dec 2009) | 5 lines

Remove obsolete docbooks (stable branch).
See: http://lists.kde.org/?l=kde-i18n-doc&m=126056366726950&w=2

CCMAIL: kde-i18n-it@kde.org

------------------------------------------------------------------------
r1064273 | yurchor | 2009-12-20 14:04:12 +0000 (Sun, 20 Dec 2009) | 1 line

SVN_SILENT Ukrainian translation update for stable
------------------------------------------------------------------------
r1064279 | fdekruijf | 2009-12-20 14:15:59 +0000 (Sun, 20 Dec 2009) | 2 lines

Geldig tot -> Geldigheidsperiode gebruik makend -> gebruikmakend

------------------------------------------------------------------------
r1064282 | yurchor | 2009-12-20 14:20:04 +0000 (Sun, 20 Dec 2009) | 1 line

SVN_SILENT Ukrainian translation update for stable
------------------------------------------------------------------------
r1064340 | fdekruijf | 2009-12-20 17:17:58 +0000 (Sun, 20 Dec 2009) | 1 line

update
------------------------------------------------------------------------
r1064378 | yurchor | 2009-12-20 20:12:44 +0000 (Sun, 20 Dec 2009) | 1 line

SVN_SILENT Ukrainian translation update for stable
------------------------------------------------------------------------
r1064402 | jferrer | 2009-12-20 21:25:20 +0000 (Sun, 20 Dec 2009) | 2 lines

Updates by Josep Ma. Ferrer (typos)

------------------------------------------------------------------------
r1064453 | scripty | 2009-12-21 00:37:36 +0000 (Mon, 21 Dec 2009) | 1 line

SVN_SILENT made messages (desktop*.pot file committed)
------------------------------------------------------------------------
r1064486 | zpintar | 2009-12-21 02:26:12 +0000 (Mon, 21 Dec 2009) | 1 line

Updated Croatian translations for kde4-stable.
------------------------------------------------------------------------
r1064491 | scripty | 2009-12-21 04:11:42 +0000 (Mon, 21 Dec 2009) | 1 line

SVN_SILENT made messages (.po file)
------------------------------------------------------------------------
r1064500 | scripty | 2009-12-21 04:54:15 +0000 (Mon, 21 Dec 2009) | 1 line

check_po_files
------------------------------------------------------------------------
r1064754 | reitelbach | 2009-12-21 17:08:08 +0000 (Mon, 21 Dec 2009) | 2 lines

Backport from trunk: Fix typos (missing spaces)

------------------------------------------------------------------------
r1064777 | jferrer | 2009-12-21 19:04:32 +0000 (Mon, 21 Dec 2009) | 4 lines

Updates by Manuel Tortosa (typos)
CCMAIL: manutortosa@gmail.com
CCMAIL: rcarreras@caliu.cat

------------------------------------------------------------------------
r1064792 | repinc | 2009-12-21 20:06:20 +0000 (Mon, 21 Dec 2009) | 2 lines

Commiting updated Slovenian translations before my laptop dies completely

------------------------------------------------------------------------
r1064845 | jferrer | 2009-12-21 23:02:46 +0000 (Mon, 21 Dec 2009) | 4 lines

Updates by Manuel Tortosa (typos)
CCMAIL: manutortosa@gmail.com
CCMAIL: rcarreras@caliu.cat

------------------------------------------------------------------------
r1064865 | scripty | 2009-12-22 00:29:57 +0000 (Tue, 22 Dec 2009) | 1 line

SVN_SILENT made messages (.pot file)
------------------------------------------------------------------------
r1064877 | zpintar | 2009-12-22 02:25:26 +0000 (Tue, 22 Dec 2009) | 1 line

Updated Croatian translations for kde4-stable.
------------------------------------------------------------------------
r1064882 | scripty | 2009-12-22 03:56:11 +0000 (Tue, 22 Dec 2009) | 1 line

SVN_SILENT made messages (.po file)
------------------------------------------------------------------------
r1065019 | jferrer | 2009-12-22 09:58:59 +0000 (Tue, 22 Dec 2009) | 2 lines

Updates by Josep Ma. Ferrer

------------------------------------------------------------------------
r1065102 | asserhal | 2009-12-22 14:30:26 +0000 (Tue, 22 Dec 2009) | 1 line

SVN_SILENT updated translations
------------------------------------------------------------------------
r1065145 | ilic | 2009-12-22 16:23:30 +0000 (Tue, 22 Dec 2009) | 1 line

SVN_SILENT: Merge.
------------------------------------------------------------------------
r1065214 | yurchor | 2009-12-22 19:01:47 +0000 (Tue, 22 Dec 2009) | 1 line

SVN_SILENT Ukrainian translation update for stable
------------------------------------------------------------------------
r1065224 | ilic | 2009-12-22 19:40:22 +0000 (Tue, 22 Dec 2009) | 1 line

SVN_SILENT: Pmap updates.
------------------------------------------------------------------------
r1065267 | jferrer | 2009-12-22 21:26:28 +0000 (Tue, 22 Dec 2009) | 2 lines

Updates by Josep Ma. Ferrer

------------------------------------------------------------------------
r1065314 | scripty | 2009-12-23 00:29:52 +0000 (Wed, 23 Dec 2009) | 1 line

SVN_SILENT made messages (.pot file)
------------------------------------------------------------------------
r1065329 | zpintar | 2009-12-23 02:24:57 +0000 (Wed, 23 Dec 2009) | 1 line

Updated Croatian translations for kde4-stable.
------------------------------------------------------------------------
r1065335 | scripty | 2009-12-23 04:00:22 +0000 (Wed, 23 Dec 2009) | 1 line

SVN_SILENT made messages (.po file)
------------------------------------------------------------------------
r1065483 | chahibi | 2009-12-23 11:39:14 +0000 (Wed, 23 Dec 2009) | 1 line

Scatter
------------------------------------------------------------------------
r1065536 | fric | 2009-12-23 15:39:50 +0000 (Wed, 23 Dec 2009) | 1 line

Updated Slovak translation
------------------------------------------------------------------------
r1065583 | yurchor | 2009-12-23 19:22:35 +0000 (Wed, 23 Dec 2009) | 1 line

SVN_SILENT Ukrainian translation update for stable
------------------------------------------------------------------------
r1065587 | jferrer | 2009-12-23 19:36:01 +0000 (Wed, 23 Dec 2009) | 3 lines

Updates by Manuel Tortosa (typos)
CCMAIL: manutortosa@gmail.com

------------------------------------------------------------------------
r1065659 | scripty | 2009-12-24 00:32:39 +0000 (Thu, 24 Dec 2009) | 1 line

SVN_SILENT made messages (.pot file)
------------------------------------------------------------------------
r1065670 | zpintar | 2009-12-24 02:25:54 +0000 (Thu, 24 Dec 2009) | 1 line

Updated Croatian translations for kde4-stable.
------------------------------------------------------------------------
r1065673 | scripty | 2009-12-24 03:51:01 +0000 (Thu, 24 Dec 2009) | 1 line

SVN_SILENT made messages (.po file)
------------------------------------------------------------------------
r1065801 | franklin | 2009-12-24 10:46:35 +0000 (Thu, 24 Dec 2009) | 1 line

20091224 committed by Franklin: Merry Christmas!!
------------------------------------------------------------------------
r1065890 | cas | 2009-12-24 17:08:22 +0000 (Thu, 24 Dec 2009) | 1 line

SVN_SILENT Fix XML errors by http://www.kde.cat/aacid/xml_errors/trunk/ru/messages.html
------------------------------------------------------------------------
r1065917 | yurchor | 2009-12-24 19:54:47 +0000 (Thu, 24 Dec 2009) | 1 line

SVN_SILENT Ukrainian translation update for stable
------------------------------------------------------------------------
r1065943 | scripty | 2009-12-25 00:32:25 +0000 (Fri, 25 Dec 2009) | 1 line

SVN_SILENT made messages (.pot file)
------------------------------------------------------------------------
r1065959 | zpintar | 2009-12-25 02:24:56 +0000 (Fri, 25 Dec 2009) | 1 line

Updated Croatian translations for kde4-stable.
------------------------------------------------------------------------
r1065962 | repinc | 2009-12-25 02:42:01 +0000 (Fri, 25 Dec 2009) | 2 lines

Updated Slovenian translations

------------------------------------------------------------------------
r1065964 | scripty | 2009-12-25 03:58:26 +0000 (Fri, 25 Dec 2009) | 1 line

SVN_SILENT made messages (.po file)
------------------------------------------------------------------------
r1066048 | ilic | 2009-12-25 15:22:44 +0000 (Fri, 25 Dec 2009) | 1 line

SVN_SILENT: Merge.
------------------------------------------------------------------------
r1066090 | schwarzer | 2009-12-25 19:09:58 +0000 (Fri, 25 Dec 2009) | 1 line

defuzz
------------------------------------------------------------------------
r1066095 | yurchor | 2009-12-25 19:51:01 +0000 (Fri, 25 Dec 2009) | 1 line

SVN_SILENT Ukrainian translation update for stable
------------------------------------------------------------------------
r1066148 | scripty | 2009-12-26 03:47:54 +0000 (Sat, 26 Dec 2009) | 1 line

SVN_SILENT made messages (.po file)
------------------------------------------------------------------------
r1066177 | fdekruijf | 2009-12-26 09:55:57 +0000 (Sat, 26 Dec 2009) | 1 line

update
------------------------------------------------------------------------
r1066317 | jferrer | 2009-12-26 18:10:22 +0000 (Sat, 26 Dec 2009) | 3 lines

Typos about "composar", reported by Manuel Tortosa
CCMAIL: manutortosa@gmail.com

------------------------------------------------------------------------
r1066419 | scripty | 2009-12-27 04:00:11 +0000 (Sun, 27 Dec 2009) | 1 line

SVN_SILENT made messages (.po file)
------------------------------------------------------------------------
r1066569 | sharuzzaman | 2009-12-27 13:10:10 +0000 (Sun, 27 Dec 2009) | 1 line

Updated Malay translation
------------------------------------------------------------------------
r1066676 | yurchor | 2009-12-27 17:41:14 +0000 (Sun, 27 Dec 2009) | 1 line

SVN_SILENT Ukrainian translation update for stable
------------------------------------------------------------------------
r1066683 | chahibi | 2009-12-27 18:05:38 +0000 (Sun, 27 Dec 2009) | 2 lines

Batch translation

------------------------------------------------------------------------
r1066712 | mrybczyn | 2009-12-27 19:50:34 +0000 (Sun, 27 Dec 2009) | 2 lines

New screenshots

------------------------------------------------------------------------
r1066821 | scripty | 2009-12-28 00:33:52 +0000 (Mon, 28 Dec 2009) | 1 line

SVN_SILENT made messages (.pot file)
------------------------------------------------------------------------
r1066841 | zpintar | 2009-12-28 02:26:55 +0000 (Mon, 28 Dec 2009) | 1 line

Updated Croatian translations for kde4-stable.
------------------------------------------------------------------------
r1066848 | scripty | 2009-12-28 04:11:19 +0000 (Mon, 28 Dec 2009) | 1 line

SVN_SILENT made messages (.po file)
------------------------------------------------------------------------
r1066866 | scripty | 2009-12-28 04:54:15 +0000 (Mon, 28 Dec 2009) | 1 line

check_po_files
------------------------------------------------------------------------
r1066956 | sharuzzaman | 2009-12-28 13:37:12 +0000 (Mon, 28 Dec 2009) | 1 line

Updated Malay translation
------------------------------------------------------------------------
r1067049 | yurchor | 2009-12-28 19:53:33 +0000 (Mon, 28 Dec 2009) | 1 line

SVN_SILENT Ukrainian translation update for stable
------------------------------------------------------------------------
r1067144 | scripty | 2009-12-29 00:30:56 +0000 (Tue, 29 Dec 2009) | 1 line

SVN_SILENT made messages (.pot file)
------------------------------------------------------------------------
r1067161 | zpintar | 2009-12-29 02:26:40 +0000 (Tue, 29 Dec 2009) | 1 line

Updated Croatian translations for kde4-stable.
------------------------------------------------------------------------
r1067167 | scripty | 2009-12-29 04:07:11 +0000 (Tue, 29 Dec 2009) | 1 line

SVN_SILENT made messages (.po file)
------------------------------------------------------------------------
r1067515 | huftis | 2009-12-29 18:21:25 +0000 (Tue, 29 Dec 2009) | 1 line

Updated Norwegian Nynorsk translations for kde4-stable.
------------------------------------------------------------------------
r1067531 | huftis | 2009-12-29 18:51:16 +0000 (Tue, 29 Dec 2009) | 1 line

Updated Norwegian Bokmål translations for kde4-stable.
------------------------------------------------------------------------
r1067550 | yurchor | 2009-12-29 19:39:36 +0000 (Tue, 29 Dec 2009) | 1 line

SVN_SILENT Ukrainian translation update for stable
------------------------------------------------------------------------
r1067569 | jferrer | 2009-12-29 21:31:37 +0000 (Tue, 29 Dec 2009) | 2 lines

Updates by Josep Ma. Ferrer

------------------------------------------------------------------------
r1067586 | repinc | 2009-12-29 22:02:48 +0000 (Tue, 29 Dec 2009) | 2 lines

Updated Slovenian translations

------------------------------------------------------------------------
r1067611 | scripty | 2009-12-30 00:33:29 +0000 (Wed, 30 Dec 2009) | 1 line

SVN_SILENT made messages (.pot file)
------------------------------------------------------------------------
r1067633 | zpintar | 2009-12-30 02:28:34 +0000 (Wed, 30 Dec 2009) | 1 line

Updated Croatian translations for kde4-stable.
------------------------------------------------------------------------
r1067640 | scripty | 2009-12-30 04:07:49 +0000 (Wed, 30 Dec 2009) | 1 line

SVN_SILENT made messages (.po file)
------------------------------------------------------------------------
r1067841 | yurchor | 2009-12-30 18:21:10 +0000 (Wed, 30 Dec 2009) | 1 line

SVN_SILENT Ukrainian translation update for stable
------------------------------------------------------------------------
r1067883 | repinc | 2009-12-30 21:09:05 +0000 (Wed, 30 Dec 2009) | 2 lines

Updated Slovenian translations

------------------------------------------------------------------------
r1067912 | pelcak | 2009-12-30 22:45:52 +0000 (Wed, 30 Dec 2009) | 1 line

Update by Vit Pelcak
------------------------------------------------------------------------
r1067949 | scripty | 2009-12-31 00:37:29 +0000 (Thu, 31 Dec 2009) | 1 line

SVN_SILENT made messages (.pot file)
------------------------------------------------------------------------
r1067950 | scripty | 2009-12-31 00:39:02 +0000 (Thu, 31 Dec 2009) | 1 line

SVN_SILENT made messages (desktop*.pot file committed)
------------------------------------------------------------------------
r1067968 | zpintar | 2009-12-31 02:29:40 +0000 (Thu, 31 Dec 2009) | 1 line

Updated Croatian translations for kde4-stable.
------------------------------------------------------------------------
r1067973 | scripty | 2009-12-31 04:05:06 +0000 (Thu, 31 Dec 2009) | 1 line

SVN_SILENT made messages (.po file)
------------------------------------------------------------------------
r1068173 | huftis | 2009-12-31 13:35:57 +0000 (Thu, 31 Dec 2009) | 1 line

Updated Norwegian Nynorsk translations for kde4-stable.
------------------------------------------------------------------------
r1068178 | huftis | 2009-12-31 13:53:38 +0000 (Thu, 31 Dec 2009) | 1 line

Updated Norwegian Bokmål translations for kde4-stable.
------------------------------------------------------------------------
r1068182 | ilic | 2009-12-31 14:16:07 +0000 (Thu, 31 Dec 2009) | 1 line

SVN_SILENT: Merge.
------------------------------------------------------------------------
r1068194 | yurchor | 2009-12-31 14:59:21 +0000 (Thu, 31 Dec 2009) | 1 line

SVN_SILENT Ukrainian translation update for stable
------------------------------------------------------------------------
r1068344 | scripty | 2010-01-01 00:34:15 +0000 (Fri, 01 Jan 2010) | 1 line

SVN_SILENT made messages (desktop*.pot file committed)
------------------------------------------------------------------------
r1068353 | zpintar | 2010-01-01 02:28:20 +0000 (Fri, 01 Jan 2010) | 1 line

Updated Croatian translations for kde4-stable.
------------------------------------------------------------------------
r1068365 | scripty | 2010-01-01 04:03:11 +0000 (Fri, 01 Jan 2010) | 1 line

SVN_SILENT made messages (.po file)
------------------------------------------------------------------------
r1068541 | huftis | 2010-01-01 13:49:26 +0000 (Fri, 01 Jan 2010) | 1 line

Updated Norwegian Bokmål translations for kde4-stable.
------------------------------------------------------------------------
r1068568 | huftis | 2010-01-01 15:15:07 +0000 (Fri, 01 Jan 2010) | 1 line

Updated Norwegian Nynorsk translations for kde4-stable.
------------------------------------------------------------------------
r1068648 | yurchor | 2010-01-01 18:55:42 +0000 (Fri, 01 Jan 2010) | 1 line

SVN_SILENT Ukrainian translation update for stable
------------------------------------------------------------------------
r1068775 | renard | 2010-01-02 00:24:32 +0000 (Sat, 02 Jan 2010) | 2 lines

Fix bas translation of register word

------------------------------------------------------------------------
r1068778 | scripty | 2010-01-02 00:30:39 +0000 (Sat, 02 Jan 2010) | 1 line

SVN_SILENT made messages (.pot file)
------------------------------------------------------------------------
r1068817 | zpintar | 2010-01-02 02:25:34 +0000 (Sat, 02 Jan 2010) | 1 line

Updated Croatian translations for kde4-stable.
------------------------------------------------------------------------
r1068819 | scripty | 2010-01-02 03:50:20 +0000 (Sat, 02 Jan 2010) | 1 line

SVN_SILENT made messages (.po file)
------------------------------------------------------------------------
r1069052 | yurchor | 2010-01-02 16:51:39 +0000 (Sat, 02 Jan 2010) | 1 line

SVN_SILENT Ukrainian translation update for stable
------------------------------------------------------------------------
r1069226 | scripty | 2010-01-03 00:31:21 +0000 (Sun, 03 Jan 2010) | 1 line

SVN_SILENT made messages (.pot file)
------------------------------------------------------------------------
r1069243 | zpintar | 2010-01-03 02:31:07 +0000 (Sun, 03 Jan 2010) | 1 line

Updated Croatian translations for kde4-stable.
------------------------------------------------------------------------
r1069251 | scripty | 2010-01-03 04:05:25 +0000 (Sun, 03 Jan 2010) | 1 line

SVN_SILENT made messages (.po file)
------------------------------------------------------------------------
r1069399 | sveinki | 2010-01-03 11:54:03 +0000 (Sun, 03 Jan 2010) | 1 line

klárað, yfirfarið
------------------------------------------------------------------------
r1069403 | huftis | 2010-01-03 12:00:28 +0000 (Sun, 03 Jan 2010) | 1 line

Updated Norwegian Nynorsk translations for kde4-stable.
------------------------------------------------------------------------
r1069407 | huftis | 2010-01-03 12:13:16 +0000 (Sun, 03 Jan 2010) | 1 line

Updated Norwegian Bokmål translations for kde4-stable.
------------------------------------------------------------------------
r1069442 | sharuzzaman | 2010-01-03 14:33:52 +0000 (Sun, 03 Jan 2010) | 1 line

Updated Malay translation
------------------------------------------------------------------------
r1069655 | scripty | 2010-01-04 00:30:49 +0000 (Mon, 04 Jan 2010) | 1 line

SVN_SILENT made messages (.pot file)
------------------------------------------------------------------------
r1069676 | zpintar | 2010-01-04 02:26:55 +0000 (Mon, 04 Jan 2010) | 1 line

Updated Croatian translations for kde4-stable.
------------------------------------------------------------------------
r1069681 | scripty | 2010-01-04 03:53:06 +0000 (Mon, 04 Jan 2010) | 1 line

SVN_SILENT made messages (.po file)
------------------------------------------------------------------------
r1069907 | ilic | 2010-01-04 12:14:26 +0000 (Mon, 04 Jan 2010) | 1 line

SVN_SILENT: Pmap updates.
------------------------------------------------------------------------
r1070182 | zpintar | 2010-01-05 02:24:43 +0000 (Tue, 05 Jan 2010) | 1 line

Updated Croatian translations for kde4-stable.
------------------------------------------------------------------------
r1070190 | rranjan | 2010-01-05 04:58:34 +0000 (Tue, 05 Jan 2010) | 1 line

maithili update
------------------------------------------------------------------------
r1070496 | yurchor | 2010-01-05 20:08:00 +0000 (Tue, 05 Jan 2010) | 1 line

SVN_SILENT Ukrainian translation update for stable
------------------------------------------------------------------------
r1070555 | scripty | 2010-01-06 00:36:06 +0000 (Wed, 06 Jan 2010) | 1 line

SVN_SILENT made messages (desktop*.pot file committed)
------------------------------------------------------------------------
r1070570 | zpintar | 2010-01-06 02:29:33 +0000 (Wed, 06 Jan 2010) | 1 line

Updated Croatian translations for kde4-stable.
------------------------------------------------------------------------
r1070584 | scripty | 2010-01-06 04:39:52 +0000 (Wed, 06 Jan 2010) | 1 line

SVN_SILENT made messages (.po file)
------------------------------------------------------------------------
r1070797 | yurchor | 2010-01-06 19:02:39 +0000 (Wed, 06 Jan 2010) | 1 line

SVN_SILENT Ukrainian translation update for stable
------------------------------------------------------------------------
r1070830 | jferrer | 2010-01-06 21:32:53 +0000 (Wed, 06 Jan 2010) | 2 lines

Updates by Josep Ma. Ferrer (typos)

------------------------------------------------------------------------
r1070893 | ilic | 2010-01-07 00:16:41 +0000 (Thu, 07 Jan 2010) | 1 line

SVN_SILENT: Pmap updates.
------------------------------------------------------------------------
r1070928 | lranghetti | 2010-01-07 01:31:27 +0000 (Thu, 07 Jan 2010) | 1 line

updated made by Lokalize
------------------------------------------------------------------------
r1070942 | zpintar | 2010-01-07 02:26:41 +0000 (Thu, 07 Jan 2010) | 1 line

Updated Croatian translations for kde4-stable.
------------------------------------------------------------------------
r1071010 | rranjan | 2010-01-07 10:06:25 +0000 (Thu, 07 Jan 2010) | 1 line

maithili update
------------------------------------------------------------------------
r1071074 | zepires | 2010-01-07 13:38:40 +0000 (Thu, 07 Jan 2010) | 1 line

Synced inconsistencies
------------------------------------------------------------------------
r1071161 | sharuzzaman | 2010-01-07 16:45:40 +0000 (Thu, 07 Jan 2010) | 1 line

Updated Malay translation
------------------------------------------------------------------------
r1071429 | scripty | 2010-01-08 00:33:28 +0000 (Fri, 08 Jan 2010) | 1 line

SVN_SILENT made messages (desktop*.pot file committed)
------------------------------------------------------------------------
r1071446 | zpintar | 2010-01-08 02:25:51 +0000 (Fri, 08 Jan 2010) | 1 line

Updated Croatian translations for kde4-stable.
------------------------------------------------------------------------
r1071447 | scripty | 2010-01-08 04:00:00 +0000 (Fri, 08 Jan 2010) | 1 line

SVN_SILENT made messages (.po file)
------------------------------------------------------------------------
r1071916 | scripty | 2010-01-09 00:34:00 +0000 (Sat, 09 Jan 2010) | 1 line

SVN_SILENT made messages (.pot file)
------------------------------------------------------------------------
r1071939 | zpintar | 2010-01-09 02:26:32 +0000 (Sat, 09 Jan 2010) | 1 line

Updated Croatian translations for kde4-stable.
------------------------------------------------------------------------
r1071940 | sharuzzaman | 2010-01-09 02:34:25 +0000 (Sat, 09 Jan 2010) | 1 line

Updated Malay translation
------------------------------------------------------------------------
r1071952 | scripty | 2010-01-09 04:07:56 +0000 (Sat, 09 Jan 2010) | 1 line

SVN_SILENT made messages (.po file)
------------------------------------------------------------------------
r1071982 | piranzo | 2010-01-09 09:17:31 +0000 (Sat, 09 Jan 2010) | 1 line

Adding all new ca@valencia translations for stable
------------------------------------------------------------------------
r1072142 | sharuzzaman | 2010-01-09 13:33:20 +0000 (Sat, 09 Jan 2010) | 1 line

Updated Malay translation
------------------------------------------------------------------------
r1072332 | ilic | 2010-01-09 23:36:35 +0000 (Sat, 09 Jan 2010) | 1 line

SVN_SILENT: Merge.
------------------------------------------------------------------------
r1072344 | scripty | 2010-01-10 00:34:55 +0000 (Sun, 10 Jan 2010) | 1 line

SVN_SILENT made messages (.pot file)
------------------------------------------------------------------------
r1072346 | scripty | 2010-01-10 00:37:16 +0000 (Sun, 10 Jan 2010) | 1 line

SVN_SILENT made messages (desktop*.pot file committed)
------------------------------------------------------------------------
r1072361 | zpintar | 2010-01-10 02:27:08 +0000 (Sun, 10 Jan 2010) | 1 line

Updated Croatian translations for kde4-stable.
------------------------------------------------------------------------
r1072372 | scripty | 2010-01-10 03:58:38 +0000 (Sun, 10 Jan 2010) | 1 line

SVN_SILENT made messages (.po file)
------------------------------------------------------------------------
r1072394 | scripty | 2010-01-10 04:18:25 +0000 (Sun, 10 Jan 2010) | 1 line

SVN_SILENT made messages (.desktop file)
------------------------------------------------------------------------
r1072418 | yurchor | 2010-01-10 08:29:35 +0000 (Sun, 10 Jan 2010) | 1 line

SVN_SILENT Ukrainian translation update for stable
------------------------------------------------------------------------
r1072598 | asserhal | 2010-01-10 13:06:53 +0000 (Sun, 10 Jan 2010) | 1 line

SVN_SILENT updated translations
------------------------------------------------------------------------
r1072646 | sharuzzaman | 2010-01-10 16:20:26 +0000 (Sun, 10 Jan 2010) | 1 line

Updated Malay translation
------------------------------------------------------------------------
r1072673 | jferrer | 2010-01-10 17:29:37 +0000 (Sun, 10 Jan 2010) | 2 lines

Updates by Josep Ma. Ferrer

------------------------------------------------------------------------
r1072706 | yurchor | 2010-01-10 19:30:33 +0000 (Sun, 10 Jan 2010) | 1 line

SVN_SILENT Ukrainian translation update for stable
------------------------------------------------------------------------
r1072806 | scripty | 2010-01-11 00:34:18 +0000 (Mon, 11 Jan 2010) | 1 line

SVN_SILENT made messages (.pot file)
------------------------------------------------------------------------
r1072807 | scripty | 2010-01-11 00:35:50 +0000 (Mon, 11 Jan 2010) | 1 line

SVN_SILENT made messages (desktop*.pot file committed)
------------------------------------------------------------------------
r1072818 | zpintar | 2010-01-11 02:25:59 +0000 (Mon, 11 Jan 2010) | 1 line

Updated Croatian translations for kde4-stable.
------------------------------------------------------------------------
r1072827 | scripty | 2010-01-11 04:08:32 +0000 (Mon, 11 Jan 2010) | 1 line

SVN_SILENT made messages (.po file)
------------------------------------------------------------------------
r1072833 | scripty | 2010-01-11 04:22:08 +0000 (Mon, 11 Jan 2010) | 1 line

SVN_SILENT made messages (.desktop file)
------------------------------------------------------------------------
r1072834 | franklin | 2010-01-11 04:31:54 +0000 (Mon, 11 Jan 2010) | 1 line

20100111 committed by Franklin
------------------------------------------------------------------------
r1072871 | pvidalis | 2010-01-11 09:28:14 +0000 (Mon, 11 Jan 2010) | 1 line


------------------------------------------------------------------------
r1073039 | sharuzzaman | 2010-01-11 13:14:41 +0000 (Mon, 11 Jan 2010) | 1 line

Updated Malay translation
------------------------------------------------------------------------
r1073076 | yurchor | 2010-01-11 15:14:47 +0000 (Mon, 11 Jan 2010) | 1 line

SVN_SILENT Ukrainian translation update for stable
------------------------------------------------------------------------
r1073261 | fdekruijf | 2010-01-11 21:47:45 +0000 (Mon, 11 Jan 2010) | 1 line

update
------------------------------------------------------------------------
r1073295 | fric | 2010-01-11 22:55:24 +0000 (Mon, 11 Jan 2010) | 1 line

Updated Slovak translation
------------------------------------------------------------------------
r1073335 | scripty | 2010-01-12 00:35:37 +0000 (Tue, 12 Jan 2010) | 1 line

SVN_SILENT made messages (.pot file)
------------------------------------------------------------------------
r1073370 | zpintar | 2010-01-12 02:24:50 +0000 (Tue, 12 Jan 2010) | 1 line

Updated Croatian translations for kde4-stable.
------------------------------------------------------------------------
r1073380 | scripty | 2010-01-12 04:07:29 +0000 (Tue, 12 Jan 2010) | 1 line

SVN_SILENT made messages (.po file)
------------------------------------------------------------------------
r1073386 | scripty | 2010-01-12 04:34:20 +0000 (Tue, 12 Jan 2010) | 1 line

SVN_SILENT made messages (.desktop file)
------------------------------------------------------------------------
r1073677 | zepires | 2010-01-12 16:45:44 +0000 (Tue, 12 Jan 2010) | 1 line

Updates on BRANCH for now
------------------------------------------------------------------------
r1073869 | pino | 2010-01-13 01:32:20 +0000 (Wed, 13 Jan 2010) | 2 lines

backport the improvements recently done by me in trunk

------------------------------------------------------------------------
r1073871 | pino | 2010-01-13 01:36:01 +0000 (Wed, 13 Jan 2010) | 2 lines

complete

------------------------------------------------------------------------
r1073884 | scripty | 2010-01-13 03:52:09 +0000 (Wed, 13 Jan 2010) | 1 line

SVN_SILENT made messages (.po file)
------------------------------------------------------------------------
r1073887 | scripty | 2010-01-13 04:09:21 +0000 (Wed, 13 Jan 2010) | 1 line

SVN_SILENT made messages (.desktop file)
------------------------------------------------------------------------
r1073938 | zpintar | 2010-01-13 10:01:33 +0000 (Wed, 13 Jan 2010) | 1 line

Updated Croatian translations for kde4-stable.
------------------------------------------------------------------------
r1074211 | sharuzzaman | 2010-01-13 16:58:54 +0000 (Wed, 13 Jan 2010) | 1 line

Updated Malay translation
------------------------------------------------------------------------
r1074394 | scripty | 2010-01-14 00:31:21 +0000 (Thu, 14 Jan 2010) | 1 line

SVN_SILENT made messages (.pot file)
------------------------------------------------------------------------
r1074409 | zpintar | 2010-01-14 02:27:11 +0000 (Thu, 14 Jan 2010) | 1 line

Updated Croatian translations for kde4-stable.
------------------------------------------------------------------------
r1074415 | scripty | 2010-01-14 03:54:52 +0000 (Thu, 14 Jan 2010) | 1 line

SVN_SILENT made messages (.po file)
------------------------------------------------------------------------
r1074420 | scripty | 2010-01-14 04:07:19 +0000 (Thu, 14 Jan 2010) | 1 line

SVN_SILENT made messages (.desktop file)
------------------------------------------------------------------------
r1074449 | sveinki | 2010-01-14 08:29:38 +0000 (Thu, 14 Jan 2010) | 1 line

nokkrir strengir
------------------------------------------------------------------------
r1074452 | sveinki | 2010-01-14 08:34:54 +0000 (Thu, 14 Jan 2010) | 1 line

klárað, eftir að yfirfara
------------------------------------------------------------------------
r1074455 | sveinki | 2010-01-14 08:44:09 +0000 (Thu, 14 Jan 2010) | 1 line

nokkrir strengir
------------------------------------------------------------------------
r1074562 | pino | 2010-01-14 10:30:23 +0000 (Thu, 14 Jan 2010) | 2 lines

backport improvements from trunk

------------------------------------------------------------------------
r1074643 | pelcak | 2010-01-14 13:34:32 +0000 (Thu, 14 Jan 2010) | 1 line

Docmessages in Summit
------------------------------------------------------------------------
r1074650 | pelcak | 2010-01-14 13:50:57 +0000 (Thu, 14 Jan 2010) | 1 line

Update from Summit
------------------------------------------------------------------------
r1074971 | zpintar | 2010-01-15 02:26:19 +0000 (Fri, 15 Jan 2010) | 1 line

Updated Croatian translations for kde4-stable.
------------------------------------------------------------------------
r1074981 | scripty | 2010-01-15 03:54:07 +0000 (Fri, 15 Jan 2010) | 1 line

SVN_SILENT made messages (.po file)
------------------------------------------------------------------------
r1074990 | scripty | 2010-01-15 04:06:03 +0000 (Fri, 15 Jan 2010) | 1 line

SVN_SILENT made messages (.desktop file)
------------------------------------------------------------------------
r1075006 | schlander | 2010-01-15 10:26:36 +0000 (Fri, 15 Jan 2010) | 2 lines

translation update

------------------------------------------------------------------------
r1075135 | pelcak | 2010-01-15 15:32:26 +0000 (Fri, 15 Jan 2010) | 1 line

Update from Summit
------------------------------------------------------------------------
r1075394 | scripty | 2010-01-16 00:29:43 +0000 (Sat, 16 Jan 2010) | 1 line

SVN_SILENT made messages (.pot file)
------------------------------------------------------------------------
r1075395 | scripty | 2010-01-16 00:31:11 +0000 (Sat, 16 Jan 2010) | 1 line

SVN_SILENT made messages (desktop*.pot file committed)
------------------------------------------------------------------------
r1075416 | zpintar | 2010-01-16 02:24:39 +0000 (Sat, 16 Jan 2010) | 1 line

Updated Croatian translations for kde4-stable.
------------------------------------------------------------------------
r1075422 | scripty | 2010-01-16 03:48:42 +0000 (Sat, 16 Jan 2010) | 1 line

SVN_SILENT made messages (.po file)
------------------------------------------------------------------------
r1075426 | scripty | 2010-01-16 04:00:52 +0000 (Sat, 16 Jan 2010) | 1 line

SVN_SILENT made messages (.desktop file)
------------------------------------------------------------------------
r1075584 | mwiese | 2010-01-16 11:40:23 +0000 (Sat, 16 Jan 2010) | 1 line

Translation and maintenance
------------------------------------------------------------------------
r1075663 | mwiese | 2010-01-16 14:07:32 +0000 (Sat, 16 Jan 2010) | 1 line

Translation and maintenance
------------------------------------------------------------------------
r1075693 | pino | 2010-01-16 14:57:40 +0000 (Sat, 16 Jan 2010) | 2 lines

backports improvements done in trunk (+13 translated messages)

------------------------------------------------------------------------
r1075760 | mwiese | 2010-01-16 17:41:37 +0000 (Sat, 16 Jan 2010) | 1 line

Translation and maintenance
------------------------------------------------------------------------
r1075782 | mwiese | 2010-01-16 18:51:34 +0000 (Sat, 16 Jan 2010) | 1 line

Translation and maintenance
------------------------------------------------------------------------
r1075914 | scripty | 2010-01-17 00:32:51 +0000 (Sun, 17 Jan 2010) | 1 line

SVN_SILENT made messages (desktop*.pot file committed)
------------------------------------------------------------------------
r1075945 | zpintar | 2010-01-17 02:30:27 +0000 (Sun, 17 Jan 2010) | 1 line

Updated Croatian translations for kde4-stable.
------------------------------------------------------------------------
r1075956 | scripty | 2010-01-17 03:53:59 +0000 (Sun, 17 Jan 2010) | 1 line

SVN_SILENT made messages (.po file)
------------------------------------------------------------------------
r1075970 | mwiese | 2010-01-17 05:30:08 +0000 (Sun, 17 Jan 2010) | 1 line

Translation and maintenance
------------------------------------------------------------------------
r1075981 | mwiese | 2010-01-17 06:58:41 +0000 (Sun, 17 Jan 2010) | 1 line

Translation and maintenance
------------------------------------------------------------------------
r1075982 | yurchor | 2010-01-17 07:10:51 +0000 (Sun, 17 Jan 2010) | 1 line

SVN_SILENT Ukrainian translation update for stable
------------------------------------------------------------------------
r1075986 | mwiese | 2010-01-17 07:26:47 +0000 (Sun, 17 Jan 2010) | 1 line

Translation and maintenance
------------------------------------------------------------------------
r1076055 | ilic | 2010-01-17 12:21:30 +0000 (Sun, 17 Jan 2010) | 1 line

SVN_SILENT: Summit scatter.
------------------------------------------------------------------------
r1076059 | ilic | 2010-01-17 12:27:55 +0000 (Sun, 17 Jan 2010) | 1 line

SVN_SILENT: Summit scatter.
------------------------------------------------------------------------
r1076088 | ilic | 2010-01-17 13:17:02 +0000 (Sun, 17 Jan 2010) | 1 line

SVN_SILENT: Summit scatter.
------------------------------------------------------------------------
r1076113 | huftis | 2010-01-17 14:55:38 +0000 (Sun, 17 Jan 2010) | 1 line

Updated Norwegian Nynorsk translations for kde4-stable.
------------------------------------------------------------------------
r1076130 | huftis | 2010-01-17 15:40:03 +0000 (Sun, 17 Jan 2010) | 1 line

Updated Norwegian Nynorsk translations for kde4-stable.
------------------------------------------------------------------------
r1076340 | scripty | 2010-01-18 00:33:13 +0000 (Mon, 18 Jan 2010) | 1 line

SVN_SILENT made messages (.pot file)
------------------------------------------------------------------------
r1076344 | huftis | 2010-01-18 00:46:02 +0000 (Mon, 18 Jan 2010) | 1 line

Updated Norwegian Nynorsk translations for kde4-stable.
------------------------------------------------------------------------
r1076348 | huftis | 2010-01-18 01:14:14 +0000 (Mon, 18 Jan 2010) | 1 line

Updated Northern Sami translations for kde4-stable.
------------------------------------------------------------------------
r1076356 | zpintar | 2010-01-18 02:26:42 +0000 (Mon, 18 Jan 2010) | 1 line

Updated Croatian translations for kde4-stable.
------------------------------------------------------------------------
r1076364 | scripty | 2010-01-18 03:59:38 +0000 (Mon, 18 Jan 2010) | 1 line

SVN_SILENT made messages (.po file)
------------------------------------------------------------------------
r1076377 | scripty | 2010-01-18 04:12:55 +0000 (Mon, 18 Jan 2010) | 1 line

SVN_SILENT made messages (.desktop file)
------------------------------------------------------------------------
r1076398 | mwiese | 2010-01-18 06:39:02 +0000 (Mon, 18 Jan 2010) | 1 line

Translation and maintenance
------------------------------------------------------------------------
r1076402 | mwiese | 2010-01-18 06:52:48 +0000 (Mon, 18 Jan 2010) | 1 line

Translation and maintenance
------------------------------------------------------------------------
r1076424 | mwiese | 2010-01-18 08:40:36 +0000 (Mon, 18 Jan 2010) | 1 line

Translation and maintenance
------------------------------------------------------------------------
r1076626 | mwiese | 2010-01-18 14:41:53 +0000 (Mon, 18 Jan 2010) | 1 line

Translation and maintenance
------------------------------------------------------------------------
r1076639 | mwiese | 2010-01-18 15:10:39 +0000 (Mon, 18 Jan 2010) | 1 line

Translation and maintenance
------------------------------------------------------------------------
r1076680 | sharuzzaman | 2010-01-18 16:45:11 +0000 (Mon, 18 Jan 2010) | 1 line

Updated Malay translation
------------------------------------------------------------------------
r1076707 | mwiese | 2010-01-18 18:10:28 +0000 (Mon, 18 Jan 2010) | 1 line

Translation and maintenance
------------------------------------------------------------------------
r1076725 | yurchor | 2010-01-18 19:00:17 +0000 (Mon, 18 Jan 2010) | 1 line

SVN_SILENT Ukrainian translation update for stable
------------------------------------------------------------------------
r1076731 | ecuadra | 2010-01-18 19:16:09 +0000 (Mon, 18 Jan 2010) | 1 line

SVN_SILENT Translation update to get ready for KDE 4.3.5 release
------------------------------------------------------------------------
r1076738 | huftis | 2010-01-18 19:42:32 +0000 (Mon, 18 Jan 2010) | 1 line

Updated Norwegian Nynorsk translations for kde4-stable.
------------------------------------------------------------------------
r1076877 | scripty | 2010-01-19 00:34:06 +0000 (Tue, 19 Jan 2010) | 1 line

SVN_SILENT made messages (.pot file)
------------------------------------------------------------------------
r1076914 | mwiese | 2010-01-19 03:00:54 +0000 (Tue, 19 Jan 2010) | 1 line

Maintenance
------------------------------------------------------------------------
r1076915 | mwiese | 2010-01-19 03:01:52 +0000 (Tue, 19 Jan 2010) | 1 line

Maintenance
------------------------------------------------------------------------
r1076928 | scripty | 2010-01-19 04:13:51 +0000 (Tue, 19 Jan 2010) | 1 line

SVN_SILENT made messages (.po file)
------------------------------------------------------------------------
r1076933 | scripty | 2010-01-19 04:25:27 +0000 (Tue, 19 Jan 2010) | 1 line

SVN_SILENT made messages (.desktop file)
------------------------------------------------------------------------
r1076934 | mwiese | 2010-01-19 04:59:02 +0000 (Tue, 19 Jan 2010) | 1 line

Translation and maintenance
------------------------------------------------------------------------
r1077192 | pelcak | 2010-01-19 16:21:23 +0000 (Tue, 19 Jan 2010) | 1 line

Update from Summit
------------------------------------------------------------------------
r1077226 | ecuadra | 2010-01-19 18:33:26 +0000 (Tue, 19 Jan 2010) | 2 lines

SVN_SILENT Translation update by Javier Viñal
CC_MAIL: fjvinal@gmail.com
------------------------------------------------------------------------
r1077264 | yurchor | 2010-01-19 21:03:25 +0000 (Tue, 19 Jan 2010) | 1 line

SVN_SILENT Ukrainian translation update for stable
------------------------------------------------------------------------
r1077349 | scripty | 2010-01-20 00:32:14 +0000 (Wed, 20 Jan 2010) | 1 line

SVN_SILENT made messages (.pot file)
------------------------------------------------------------------------
r1077351 | scripty | 2010-01-20 00:34:26 +0000 (Wed, 20 Jan 2010) | 1 line

SVN_SILENT made messages (desktop*.pot file committed)
------------------------------------------------------------------------
r1077375 | zpintar | 2010-01-20 02:26:08 +0000 (Wed, 20 Jan 2010) | 1 line

Updated Croatian translations for kde4-stable.
------------------------------------------------------------------------
r1077393 | scripty | 2010-01-20 04:07:02 +0000 (Wed, 20 Jan 2010) | 1 line

SVN_SILENT made messages (.po file)
------------------------------------------------------------------------
r1077409 | mwiese | 2010-01-20 06:14:06 +0000 (Wed, 20 Jan 2010) | 1 line

Translation and maintenance
------------------------------------------------------------------------
r1077427 | pelcak | 2010-01-20 07:57:44 +0000 (Wed, 20 Jan 2010) | 1 line

Update from Summit
------------------------------------------------------------------------
r1077618 | pelcak | 2010-01-20 14:15:00 +0000 (Wed, 20 Jan 2010) | 1 line

Update from Summit
------------------------------------------------------------------------
r1077653 | huftis | 2010-01-20 15:44:21 +0000 (Wed, 20 Jan 2010) | 1 line

Updated Norwegian Nynorsk translations for kde4-stable.
------------------------------------------------------------------------
r1077658 | pelcak | 2010-01-20 15:53:14 +0000 (Wed, 20 Jan 2010) | 1 line

Update from Summit
------------------------------------------------------------------------
r1077885 | zpintar | 2010-01-21 02:25:57 +0000 (Thu, 21 Jan 2010) | 1 line

Updated Croatian translations for kde4-stable.
------------------------------------------------------------------------
r1077896 | scripty | 2010-01-21 03:49:38 +0000 (Thu, 21 Jan 2010) | 1 line

SVN_SILENT made messages (.po file)
------------------------------------------------------------------------
r1078115 | pelcak | 2010-01-21 15:29:02 +0000 (Thu, 21 Jan 2010) | 1 line

Update from Summit
------------------------------------------------------------------------
r1078203 | sbivol | 2010-01-21 18:59:07 +0000 (Thu, 21 Jan 2010) | 1 line

Update Romanian translation
------------------------------------------------------------------------
