------------------------------------------------------------------------
r1066860 | scripty | 2009-12-28 04:23:13 +0000 (Mon, 28 Dec 2009) | 1 line

SVN_SILENT made messages (.desktop file)
------------------------------------------------------------------------
r1071857 | lueck | 2010-01-08 22:42:51 +0000 (Fri, 08 Jan 2010) | 2 lines

backport kttsd doc to branch 4.4, Jeremy, please keep up the good work and update/review the kttsd doc in trunk now
CCMAIL:jpwhiting@kde.org
------------------------------------------------------------------------
r1072387 | scripty | 2010-01-10 04:13:51 +0000 (Sun, 10 Jan 2010) | 1 line

SVN_SILENT made messages (.desktop file)
------------------------------------------------------------------------
